…
# 读取待处理的数据以及将这个数据转换成和 cnmap 同样 crs 的 sf 对象
read_xlsx('geo.xlsx') %>% 
  dplyr::filter(!is.na(lng), !is.na(lat)) %>% 
  st_as_sf(coords = c("lng", "lat"), crs = 4326) %>% 
  st_make_valid() -> df
df

#> Simple feature collection with 39166 features and 2 fields
#> Geometry type: POINT
#> Dimension:     XY
#> Bounding box:  xmin: 18.32654 ymin: 18.21693 xmax: 132.9816 ymax: 132.9816
#> Geodetic CRS:  WGS 84
#> # A tibble: 39,166 x 3
#>     code  year            geometry
#>  * <dbl> <dbl>         <POINT [°]>
#>  1     1  2013 (114.1077 22.54068)
#>  2     1  2014 (114.1077 22.54068)
#>  3     1  2015 (114.1077 22.54068)
#>  4     1  2000  (114.1157 22.5424)
#>  5     1  2003 (114.1253 22.53967)
#>  6     1  2004 (114.1077 22.54068)
#>  7     1  2005 (114.1077 22.54068)
#>  8     1  2006 (114.1077 22.54068)
#>  9     1  2007 (114.1077 22.54068)
#> 10     1  2008 (114.1077 22.54068)
#> # … with 39,156 more rows
…
然后就可以进行省份归类啦，需要注意，进行地理计算的时候，各个 sf 对象应该是同一 crs 的：

```r
df %>% 
  st_intersection(cnmap) -> df
df

#> Simple feature collection with 37616 features and 5 fields
#> Geometry type: POINT
#> Dimension:     XY
#> Bounding box:  xmin: 1207495 ymin: 2685282 xmax: 5890910 ymax: 6124680
#> CRS:           +proj=laea +lat_0=23 +lon_0=113 +x_0=4321000 +y_0=3210000 +ellps=GRS80 +units=m +no_defs
#> # A tibble: 37,616 x 6
#>     code  year 省代码 省     类型            geometry
#>  * <dbl> <dbl>  <dbl> <chr>  <chr>        <POINT [m]>
#>  1     8  2015 110000 北京市 直辖市 (4610367 5085602)
#>  2     8  2016 110000 北京市 直辖市 (4610367 5085602)
#>  3     8  2017 110000 北京市 直辖市 (4610367 5085602)
#>  4    10  2010 110000 北京市 直辖市 (4577116 5139321)
#>  5    10  2011 110000 北京市 直辖市 (4577116 5139321)
#>  6    10  2013 110000 北京市 直辖市 (4610763 5084248)
#>  7    10  2012 110000 北京市 直辖市 (4610763 5084248)
#>  8    10  2015 110000 北京市 直辖市 (4610763 5084248)
#>  9    10  2014 110000 北京市 直辖市 (4610763 5084248)
#> 10    18  2015 110000 北京市 直辖市 (4625515 5068770)
#> # … with 37,606 more rows
```
…
如果使用 https://czxb.shinyapps.io/lonlat2county/ 网站进行解析，建议每次不要解析超过 1 万个观测值，否则网站可能会崩溃。

结果如下：

```r
read_csv("结果数据.csv") 

#> # A tibble: 962 x 11
#>      lon   lat  code  year 县代码 县     省代码 省     市代码 市     类型  
#>    <dbl> <dbl> <dbl> <dbl>  <dbl> <chr>   <dbl> <chr>   <dbl> <chr>  <chr> 
#>  1  116.  39.9    46  2010 110101 东城区 110000 北京市 110000 北京市 市辖区
#>  2  116.  39.9    46  2011 110101 东城区 110000 北京市 110000 北京市 市辖区
#>  3  116.  39.9    46  2013 110101 东城区 110000 北京市 110000 北京市 市辖区
#>  4  116.  39.9    46  2012 110101 东城区 110000 北京市 110000 北京市 市辖区
#>  5  116.  39.9    46  2014 110101 东城区 110000 北京市 110000 北京市 市辖区
#>  6  116.  39.9    46  2015 110101 东城区 110000 北京市 110000 北京市 市辖区
#>  7  116.  39.9    46  2016 110101 东城区 110000 北京市 110000 北京市 市辖区
#>  8  116.  39.9    46  2017 110101 东城区 110000 北京市 110000 北京市 市辖区
#>  9  116.  39.9    46  2018 110101 东城区 110000 北京市 110000 北京市 市辖区
#> 10  116.  39.9     8  2015 110102 西城区 110000 北京市 110000 北京市 市辖区
#> # … with 952 more rows
```
…
